EDA
…
tally <- odcsv %>% group_by(hours) %>% summarise(total_n=n()) 

proportion <- odcsv %>% group_by(hours,Survive) %>% summarise(n=n()) %>% inner_join(tally) %>% mutate(prop=n/total_n)

## Joining, by = "hours"

proportion

## # A tibble: 2,381 x 5
## # Groups:   hours [1,473]
##     hours Survive     n total_n   prop
##     <dbl> <fct>   <int>   <int>  <dbl>
##  1 0      N         178    1271 0.140 
##  2 0      U         181    1271 0.142 
##  3 0      Y         912    1271 0.718 
##  4 0.0167 N           6      16 0.375 
##  5 0.0167 U           1      16 0.0625
##  6 0.0167 Y           9      16 0.562 
##  7 0.0333 N           1      11 0.0909
##  8 0.0333 U           1      11 0.0909
##  9 0.0333 Y           9      11 0.818 
## 10 0.05   N           1       6 0.167 
## # ... with 2,371 more rows
…
